module github.com/smart7even/golang-do

go 1.18

require (
	github.com/gin-gonic/gin v1.7.7
	github.com/go-sql-driver/mysql v1.6.0
	github.com/golang-migrate/migrate v3.5.4+incompatible
	github.com/golang-migrate/migrate/v4 v4.15.2
	github.com/joho/godotenv v1.4.0
	google.golang.org/grpc v1.46.0
	google.golang.org/protobuf v1.28.0
)

require (
	github.com/gin-contrib/sse v0.1.0 // indirect
	github.com/go-playground/locales v0.13.0 // indirect
	github.com/go-playground/universal-translator v0.17.0 // indirect
	github.com/go-playground/validator/v10 v10.4.1 // indirect
	github.com/golang/protobuf v1.5.2 // indirect
	github.com/hashicorp/errwrap v1.1.0 // indirect
	github.com/hashicorp/go-multierror v1.1.1 // indirect
	github.com/json-iterator/go v1.1.12 // indirect
	github.com/leodido/go-urn v1.2.0 // indirect
	github.com/mattn/go-isatty v0.0.12 // indirect
	github.com/modern-go/concurrent v0.0.0-20180306012644-bacd9c7ef1dd // indirect
	github.com/modern-go/reflect2 v1.0.2 // indirect
	github.com/ugorji/go/codec v1.1.7 // indirect
	go.uber.org/atomic v1.7.0 // indirect
	golang.org/x/crypto v0.0.0-20210921155107-089bfa567519 // indirect
	golang.org/x/net v0.0.0-20220225172249-27dd8689420f // indirect
	golang.org/x/sys v0.0.0-20220317061510-51cd9980dadf // indirect
	golang.org/x/text v0.3.7 // indirect
	google.golang.org/genproto v0.0.0-20220314164441-57ef72a4c106 // indirect
	gopkg.in/yaml.v2 v2.4.0 // indirect
)
